{
  "content": [
    [
      {
        "title": "HPE C3 Get Ahead",
        "width": "160",
        "height": "600",
        "loc": "dev/getAhead/160x600/index.html"
      },
      {
        "title": "HPE C3 Get Ahead",
        "width": "300",
        "height": "250",
        "loc": "dev/getAhead/300x250/index.html"
      },
      {
        "title": "HPE C3 Get Ahead",
        "width": "300",
        "height": "600",
        "loc": "dev/getAhead/300x600/index.html"
      },
      {
        "title": "HPE C3 Get Ahead",
        "width": "728",
        "height": "90",
        "loc": "dev/getAhead/728x90/index.html"
      }
    ],

    [
      {
        "title": "HPE C3 Know How",
        "width": "160",
        "height": "600",
        "loc": "dev/knowHow/160x600/index.html"
      },
      {
        "title": "HPE C3 Know How",
        "width": "300",
        "height": "250",
        "loc": "dev/knowHow/300x250/index.html"
      },
      {
        "title": "HPE C3 Know How",
        "width": "300",
        "height": "600",
        "loc": "dev/knowHow/300x600/index.html"
      },
      {
        "title": "HPE C3 Know How",
        "width": "728",
        "height": "90",
        "loc": "dev/knowHow/728x90/index.html"
      }
    ]
  ]
}